{
  "questions": [
    {
      "id": 1,
      "question": "Elixir is a dynamic, functional language that leverages the _______, known for running low-latency, distributed and fault-tolerant systems.",
      "choices": [
        "Java Virtual Machine",
        "Erlang Virtual Machine",
        "GNU Compiler Collection (GCC)",
        "Cross-transactional Binary Compiler"
      ]
    },
    {
      "id": 2,
      "question": "Which of the following is NOT a built-in data type in Elixir? ",
      "choices": ["Map", "Atom", "Array", "String"]
    }
  ]
}
